<?xml version="1.0" encoding="utf-8"?>
<!-- Generator: Adobe Illustrator 16.0.0, SVG Export Plug-In . SVG Version: 6.00 Build 0)  -->
<!DOCTYPE svg PUBLIC "-//W3C//DTD SVG 1.1//EN" "http://www.w3.org/Graphics/SVG/1.1/DTD/svg11.dtd">
<svg version="1.1" id="Capa_1" xmlns="http://www.w3.org/2000/svg" xmlns:xlink="http://www.w3.org/1999/xlink" x="0px" y="0px"
	 width="521.212px" height="251.514px" viewBox="0 0 521.212 251.514" enable-background="new 0 0 521.212 251.514"
	 xml:space="preserve">
<rect x="-191.919" y="-193.02" display="none" fill="#272E63" width="873.737" height="623.231"/>
<g>
	<rect x="181.031" y="70.059" fill="none" width="700.402" height="118.436"/>
	<path fill="#1574BA" d="M204.598,84.447v12.995h15.287v12.739l-15.287-1.019v29.556c0,1.019,0.021,2.165,0.063,3.439
		c0.042,1.273,0.148,2.506,0.318,3.694c0.17,1.189,0.446,2.229,0.828,3.121c0.382,0.892,0.913,1.508,1.593,1.848
		c0.934,0.425,2.208,0.53,3.822,0.318c1.614-0.213,3.142-0.531,4.586-0.956c1.699-0.509,3.525-1.146,5.478-1.91v12.229
		c-2.548,1.104-4.968,1.848-7.261,2.229c-2.293,0.383-5.054,0.573-8.281,0.573c-3.992,0-7.07-0.765-9.236-2.293
		c-2.166-1.528-3.801-3.503-4.905-5.924s-1.762-5.074-1.975-7.962s-0.318-5.69-0.318-8.408V85.594L204.598,84.447z"/>
	<path fill="#1574BA" d="M268.037,98.397c3.143,1.062,5.754,2.846,7.836,5.351c2.08,2.506,3.672,5.775,4.777,9.81
		c1.104,4.034,1.655,8.981,1.655,14.842v30.702c-1.274,0.85-2.888,1.55-4.841,2.103c-1.953,0.552-4.056,0.977-6.307,1.273
		c-2.25,0.298-4.521,0.51-6.814,0.638c-2.294,0.127-4.375,0.19-6.243,0.19c-3.312,0-6.454-0.233-9.427-0.7
		c-2.973-0.468-5.606-1.423-7.899-2.867c-2.293-1.443-4.098-3.545-5.415-6.306c-1.316-2.76-1.975-6.434-1.975-11.02
		c0-5.945,1.741-10.553,5.223-13.822c3.482-3.271,8.833-5.372,16.052-6.307c1.953-0.255,3.673-0.403,5.159-0.445
		c1.486-0.043,2.781-0.064,3.886-0.064c1.274,0,2.378,0.043,3.313,0.128c0-2.378-0.361-4.714-1.083-7.007
		c-0.723-2.293-1.805-3.907-3.248-4.841c-2.124-1.274-4.65-1.911-7.58-1.911c-2.931,0-5.754,0.255-8.472,0.765
		c-3.228,0.594-6.498,1.528-9.81,2.803V99.608c1.274-0.51,2.803-0.935,4.586-1.274c1.784-0.34,3.631-0.615,5.542-0.828
		c1.911-0.212,3.758-0.382,5.542-0.51c1.784-0.127,3.354-0.19,4.714-0.19C261.285,96.805,264.895,97.335,268.037,98.397z
		 M261.158,131.966c-2.123,0.085-4.098,0.445-5.924,1.083c-1.826,0.637-3.355,1.635-4.586,2.993
		c-1.232,1.359-1.848,3.27-1.848,5.733c0,3.736,0.743,6.412,2.229,8.025c1.486,1.614,4.268,2.421,8.345,2.421
		c1.104,0,2.123-0.106,3.057-0.318c0.935-0.213,1.742-0.446,2.421-0.701c0.85-0.34,1.571-0.68,2.166-1.02v-18.217
		C265.234,131.881,263.281,131.881,261.158,131.966z"/>
	<path fill="#1574BA" d="M335.871,161.522c-1.742,0.34-3.568,0.615-5.479,0.828c-1.911,0.212-3.822,0.382-5.732,0.51
		c-1.912,0.127-3.674,0.19-5.287,0.19c-3.992,0-7.517-0.552-10.574-1.656c-3.058-1.104-5.669-2.93-7.835-5.478
		c-2.165-2.548-3.8-5.902-4.905-10.064c-1.104-4.161-1.655-9.342-1.655-15.542s0.552-11.423,1.655-15.67
		c1.105-4.246,2.74-7.687,4.905-10.319c2.166-2.633,4.777-4.543,7.835-5.732s6.582-1.783,10.574-1.783
		c1.613,0,3.375,0.063,5.287,0.19c1.91,0.128,3.821,0.298,5.732,0.51c1.91,0.213,3.736,0.488,5.479,0.828
		c1.74,0.34,3.248,0.722,4.521,1.146v12.23c-2.293-0.935-4.671-1.699-7.134-2.293c-2.123-0.51-4.544-0.871-7.262-1.083
		c-2.718-0.213-5.478-0.064-8.28,0.445c-3.228,0.68-5.393,2.931-6.498,6.752c-1.104,3.822-1.655,8.748-1.655,14.778
		c0,5.945,0.552,10.765,1.655,14.459c1.105,3.694,3.271,5.882,6.498,6.562c2.803,0.594,5.563,0.764,8.28,0.509
		s5.139-0.637,7.262-1.146c2.463-0.594,4.841-1.358,7.134-2.293v11.976C339.119,160.8,337.611,161.182,335.871,161.522z"/>
	<path fill="#1574BA" d="M390.775,161.522c-1.742,0.34-3.568,0.615-5.479,0.828c-1.911,0.212-3.822,0.382-5.732,0.51
		c-1.912,0.127-3.674,0.19-5.287,0.19c-3.992,0-7.517-0.552-10.574-1.656c-3.058-1.104-5.669-2.93-7.835-5.478
		c-2.165-2.548-3.8-5.902-4.905-10.064c-1.104-4.161-1.655-9.342-1.655-15.542s0.552-11.423,1.655-15.67
		c1.105-4.246,2.74-7.687,4.905-10.319c2.166-2.633,4.777-4.543,7.835-5.732s6.582-1.783,10.574-1.783
		c1.613,0,3.375,0.063,5.287,0.19c1.91,0.128,3.821,0.298,5.732,0.51c1.91,0.213,3.736,0.488,5.479,0.828
		c1.74,0.34,3.248,0.722,4.521,1.146v12.23c-2.293-0.935-4.671-1.699-7.134-2.293c-2.123-0.51-4.544-0.871-7.262-1.083
		c-2.718-0.213-5.478-0.064-8.28,0.445c-3.228,0.68-5.393,2.931-6.498,6.752c-1.104,3.822-1.655,8.748-1.655,14.778
		c0,5.945,0.552,10.765,1.655,14.459c1.105,3.694,3.271,5.882,6.498,6.562c2.803,0.594,5.563,0.764,8.28,0.509
		s5.139-0.637,7.262-1.146c2.463-0.594,4.841-1.358,7.134-2.293v11.976C394.023,160.8,392.516,161.182,390.775,161.522z"/>
	<path fill="#1574BA" d="M444.214,136.17c-2.208,0.509-4.692,0.913-7.452,1.21c-2.761,0.297-5.627,0.488-8.6,0.573
		s-5.775,0.042-8.408-0.127c0.34,4.246,1.083,7.389,2.229,9.427s2.824,3.397,5.032,4.077c1.359,0.424,3.1,0.637,5.223,0.637
		c2.124,0,4.375-0.148,6.752-0.446c2.379-0.297,4.777-0.743,7.198-1.338c2.421-0.594,4.607-1.273,6.562-2.038v12.485
		c-1.359,0.34-3.016,0.658-4.969,0.955s-3.949,0.552-5.988,0.765c-2.037,0.212-4.033,0.382-5.987,0.51
		c-1.953,0.127-3.609,0.19-4.968,0.19c-4.247,0-8.005-0.53-11.275-1.592c-3.27-1.063-6.051-2.824-8.344-5.287
		s-4.034-5.69-5.224-9.683c-1.188-3.991-1.783-8.96-1.783-14.905c0-12.145,2.06-20.978,6.179-26.498s10.256-8.28,18.408-8.28
		c4.926,0,8.982,0.255,12.166,0.764c3.186,0.51,5.5,1.231,6.943,2.166c0.68,0.425,1.443,1.189,2.293,2.293
		c0.85,1.104,1.656,2.421,2.421,3.949c0.765,1.529,1.38,3.291,1.847,5.287c0.468,1.996,0.658,4.098,0.574,6.306
		c-0.17,4.332-0.723,7.941-1.656,10.829c-0.935,2.888-2.251,4.841-3.949,5.86C448.163,135.024,446.422,135.661,444.214,136.17z
		 M421.475,114.704c-1.063,3.271-1.678,7.665-1.848,13.186c2.123-0.085,4.203-0.233,6.242-0.445
		c2.038-0.213,3.864-0.446,5.479-0.701c1.613-0.255,2.993-0.552,4.14-0.892s1.975-0.68,2.484-1.02
		c0.679-0.764,1.168-1.698,1.465-2.803c0.298-1.104,0.403-2.76,0.319-4.968c-0.086-2.124-0.256-3.864-0.51-5.224
		c-0.256-1.358-0.893-2.336-1.912-2.93c-0.509-0.255-1.188-0.468-2.037-0.638c-0.85-0.17-1.784-0.275-2.803-0.318
		c-1.02-0.042-2.061-0.042-3.121,0c-1.063,0.043-2.018,0.148-2.867,0.318C424.213,109.29,422.535,111.434,421.475,114.704z"/>
	<path fill="#1574BA" d="M474.911,150.884c3.567,0.722,6.88,1.083,9.937,1.083c5.775,0,8.663-2.633,8.663-7.898
		c0-2.123-0.7-3.801-2.103-5.032c-1.4-1.231-3.143-2.251-5.223-3.058s-4.332-1.613-6.752-2.421c-2.42-0.807-4.672-1.868-6.752-3.185
		c-2.081-1.316-3.822-3.036-5.223-5.159c-1.402-2.124-2.103-4.969-2.103-8.536c0-7.219,1.847-12.314,5.542-15.287
		c3.693-2.973,9.066-4.459,16.115-4.459c3.227,0,6.434,0.255,9.618,0.765s5.882,1.104,8.089,1.783v11.976
		c-0.934-0.34-2.059-0.701-3.375-1.083s-2.718-0.743-4.204-1.083s-2.993-0.615-4.522-0.828c-1.529-0.212-2.973-0.318-4.332-0.318
		c-2.887,0-4.947,0.637-6.178,1.911c-1.232,1.273-1.848,3.27-1.848,5.987c0,1.613,0.701,2.909,2.102,3.886
		c1.402,0.977,3.164,1.89,5.287,2.739c2.123,0.849,4.438,1.762,6.943,2.738c2.506,0.978,4.82,2.251,6.943,3.822
		s3.885,3.588,5.287,6.051c1.4,2.464,2.102,5.605,2.102,9.428c0,3.652-0.553,6.667-1.656,9.045s-2.654,4.247-4.65,5.605
		c-1.996,1.359-4.395,2.314-7.197,2.866c-2.803,0.553-5.902,0.828-9.301,0.828c-3.821,0-7.537-0.297-11.146-0.892
		s-6.646-1.358-9.109-2.293V148.4C468.329,149.334,471.344,150.163,474.911,150.884z"/>
</g>
<g id="XMLID_28_">
	<path id="XMLID_31_" fill="#F0C20E" d="M80.321,57.371c5.389,0,9.768-4.373,9.768-9.768c0-5.396-4.378-9.769-9.768-9.769
		c-5.396,0-9.77,4.373-9.77,9.769C70.551,52.998,74.925,57.371,80.321,57.371z"/>
	<path id="XMLID_30_" fill="#F0C20E" d="M95.417,112.724c-2.596,9.013-10.906,15.632-20.743,15.632
		c-11.913,0-21.601-9.688-21.601-21.598c0-8.816,5.317-16.404,12.908-19.756v-9.157c-12.428,3.744-21.51,15.282-21.51,28.913
		c0,16.652,13.549,30.202,30.204,30.202c12.137,0,22.598-7.215,27.394-17.563l-3.409-6.701
		C97.701,112.705,96.592,112.714,95.417,112.724z"/>
	<path id="XMLID_29_" fill="#F0C20E" d="M123.875,124.318l-13.084-25.723c-0.976-1.925-2.951-3.137-5.111-3.137H88.922v-3.82h14.422
		c1.441,0,2.651-0.754,3.435-1.838c0.507-0.706,0.868-1.527,0.868-2.465c0-2.376-1.924-4.303-4.303-4.303h-8.688h-5.733v-12.96
		c0-3.564-2.643-8.604-8.601-8.604c-4.752,0-8.604,3.853-8.604,8.604v28.082c0,4.847,3.929,8.776,8.777,8.776h15.769h5.9
		l11.49,22.591c1.01,1.987,3.024,3.137,5.115,3.137c0.876,0,1.765-0.202,2.596-0.625
		C124.191,130.598,125.314,127.141,123.875,124.318z"/>
</g>
<path fill="#F0C30E" d="M152.227,55.183C131.187,18.49,84.385,5.8,47.692,26.84C10.999,47.879-1.692,94.681,19.349,131.374
	l61.828,107.829c2.042,3.562,7.18,3.562,9.222,0l61.828-107.829C165.219,108.578,166.224,79.591,152.227,55.183z M85.77,154.864
	c-35.129,0-63.606-28.479-63.606-63.606c0-35.129,28.478-63.607,63.606-63.607s63.606,28.478,63.606,63.607
	C149.376,126.385,120.898,154.864,85.77,154.864z"/>
<g>
</g>
<g>
</g>
<g>
</g>
<g>
</g>
<g>
</g>
<g>
</g>
</svg>
